"Resource/UI/RDLeaderboardPanel_Points.res"
{
	"LblTitle"
	{
		"fieldName"		"LblTitle"
		"xpos"			"0"
		"ypos"			"0"
		"wide"			"240"
		"tall"			"20"
		"labelText"		"#asw_iaf_heroes_title"
		"ControlName"	"Label"
	}
	
	"LblScore"
	{
		"fieldName"		"LblScore"
		"xpos"			"155"
		"ypos"			"0"
		"wide"			"35"
		"tall"			"20"
		"textAlignment"	"east"
		"labelText"		"Score"
		"ControlName"	"Label"
	}
	
	"LblKills"
	{
		"fieldName"		"LblKills"
		"xpos"			"204"
		"ypos"			"0"
		"wide"			"45"
		"tall"			"20"
		"textAlignment"	"east"
		"labelText"		"Eliminations"
		"ControlName"	"Label"
	}
	
	"LblTeamKills"
	{
		"fieldName"		"LblTeamKills"
		"xpos"			"264"
		"ypos"			"0"
		"wide"			"35"
		"tall"			"20"
		"textAlignment"	"east"
		"labelText"		"Team Kills"
		"ControlName"	"Label"
	}
	
	"LblMissionSuccess"
	{
		"fieldName"		"LblMissionSuccess"
		"xpos"			"304"
		"ypos"			"0"
		"wide"			"45"
		"tall"			"20"
		"textAlignment"	"east"
		"labelText"		"Mis. Success"
		"ControlName"	"Label"
	}
	
	"LblMissionFails"
	{
		"fieldName"		"LblMissionFails"
		"xpos"			"354"
		"ypos"			"0"
		"wide"			"45"
		"tall"			"20"
		"textAlignment"	"east"
		"labelText"		"Mis. Fail"
		"ControlName"	"Label"
	}
	
	"LblMissionTotal"
	{
		"fieldName"		"LblMissionTotal"
		"xpos"			"414"
		"ypos"			"0"
		"wide"			"35"
		"tall"			"20"
		"textAlignment"	"east"
		"labelText"		"Mis. Total"
		"ControlName"	"Label"
	}

	"GplLeaderboard"
	{
		"fieldName"		"GplLeaderboard"
		"xpos"			"0"
		"ypos"			"20"
		"wide"			"f0"
		"tall"			"f20"
		"bgcolor_override"	"0 0 0 0"
		"ControlName"	"GenericPanelList"
	}
}
